name,repository,website,more information,license,category,summary,summary source,description,description source,screenshots,mobile compatibility,framework,backend,service,appid,scale-to-fit,notice,flatpak,aur,postmarketos,debian,,
choqok-kirigami,https://web.archive.org/web/20180617174033/https://github.com/geekodour/choqok-kirigami,,,??? (View License),social networks,"""Kirigami Implementation of KDE choqok """,https://github.com/geekodour/choqok-kirigami,,,,5,Kirigami,,,,,"Repository seems to be gone, memento: https://web.archive.org/web/20180617174033/https://github.com/geekodour/choqok-kirigami  remove?",,,,,,
Ruqola,https://invent.kde.org/network/ruqola,,https://community.kde.org/GSoC/2017/StatusReports/Vasudha https://vasudhamathur.wordpress.com/2017/08/25/ruqola-installation/,GNU GPLv2,chat,Ruqola is a QML client for Rocket Chat,https://cgit.kde.org/ruqola.git/refs/,,,https://community.kde.org/GSoC/2017/StatusReports/Vasudha,5,Kirigami,,Rocket.Chat,,,"The mobile version is not maintained any more by upstream, this is going to be archived.",,ruqola-git,,,,
Olifant,https://github.com/Alexmitter/olifant,,,GNU GPLv3,social networks,"""A fork of Olifant to make it kind of pleasant to use on the linux phone.""",https://github.com/Alexmitter/olifant,,,https://wiki.mobian-project.org/doku.php?id=olifant,3,GTK,,Mastodon,com.github.cleac.olifant,com.github.cleac.olifant,"No commits in 6 months, therefore archived",,,,,,
Ring-KDE,https://invent.kde.org/network/ring-kde,https://elv13.wordpress.com/author/elv13/,,GNU GPLv2,"chat, telephony","""The KDE client for the Ring communication framework""",https://cgit.kde.org/ring-kde.git,,,https://elv13.wordpress.com/author/elv13/,,"QtQuick, Kirigami",Jami (formerly Ring),,org.kde.ring-kde,,Project is archived,,,,,,
FeedReader,https://github.com/jangernert/FeedReader/,https://jangernert.github.io/FeedReader/,,GNU GPLv3,feed reader,"""FeedReader is a modern desktop application designed to complement existing web-based RSS accounts.""",https://github.com/jangernert/FeedReader/,"""Reader for rss services (not maintained any more, a new project by the same developer is in the course of development, news flash)""",,,2,GTK,,"TT-RSS, Feedly , Feedin, Fresh Rss, Inoreader,The Old Reader, next cloud and local rss",org.gnome.feedreader,,"Scale-to-fit necessary and even with the last pane of is not completely displayed and some crash, Launch and configuration works, archived as it is unmaintained",,feedreader (repo),feedreader,,,
Brave,https://github.com/brave/brave-browser,https://brave.com/,https://brave.com/about/,MPL 2.5 and others,browser,"Brave is a browser that blocks ads and trackers by default. It supports swiping to change tabs, pinch zoom and other gestures. It also has built in Tor support.",no quotation,,,,A,,chromium,,,,,,,,,,
Terrarium,https://github.com/penk/terrarium-app,http://www.terrariumapp.com/,,MIT,UI prototyping,"""Terrarium is a cross platform QML Playground: the view renders lively as you type in the editor, makes prototyping and experimenting with QtQuick a lot more fun!""",https://github.com/penk/terrarium-app,,,https://web.archive.org/web/20190828123102/https://play.google.com/store/apps/details?id=com.terrariumapp.penk.Terrarium,A,QtQuick,,,com.terrariumapp.penk.Terrarium,,,,,,,,
gtkcord3,https://github.com/diamondburned/gtkcord3,,,GNU GPLv3,chat,"""A Gtk3 Discord client in Golang""",https://github.com/diamondburned/gtkcord3,,,,4,"GTK, libhandy",,Discord,,gtkcord3,"chat screens don’t scale properly without scale-to-fit, Repo archived",,"gtkcord3, gtkcord3-git",,,,
Two-Factor-Keychain,https://git.eyecreate.org/eyecreate/Two-Factor-Keychain,,,GPL-3.0-only ,OTP generator,"""Python app intended for mobile/desktop linux computers for managing OTP codes.""",https://git.eyecreate.org/eyecreate/Two-Factor-Keychain,,,https://www.eyecreate.org/images/two-factor-demo-fs8.png,5,QtQuick,,,,,Repository seems to be empty,,,,,,
PasswordSage,https://gitlab.com/sspaeth/passwordsage ,,,GPL-3.0-only ,password manager,"""A password manager geared towards mobile screens. It uses GTK as framework and parses .kdbx files (version 3.1 and 4).""",https://gitlab.com/sspaeth/passwordsage ,,,,4,"GTK, libhandy",,,,,,,,,,,
diffpdf,http://www.qtrac.eu/diffpdf-2.1.3.tar.gz,http://www.qtrac.eu/diffpdf-foss.html,,GPL-2.0-only ,document comparison,"""Diffing pdf files visually or textually""",http://www.qtrac.eu/diffpdf-foss.html,,,,2,Qt,,,,,Removed for not being a mobile app.,,diffpdf (repo),diffpdf,diffpdf,,
quaternion,https://github.com/quotient-im/Quaternion,,,GPL-3.0-only ,messenger,"""A Qt5-based IM client for Matrix""",https://github.com/quotient-im/Quaternion,,,,3,Qt,,Matrix,com.github.quaternion,,Rather use neochat or matrix-mirage if they are available on your distibution.,https://flathub.org/apps/details/com.github.quaternion,quaternion quaternion-git,quaternion,quaternion,appstream://com.github.quaternion,
Cherrytree,https://github.com/giuspen/cherrytree,https://www.giuspen.com/cherrytree/,,GPL-3.0-or-later ,note taking,"""A hierarchical note taking application, featuring rich text and syntax highlighting, storing data in a single xml or sqlite file.""",https://www.giuspen.com/cherrytree/,,,,3,GTK,,,com.giuspen.cherrytree,cherrytree,"Desktop app, works ok with scale-to-fit, archived for not being a mobile app",https://flathub.org/apps/details/com.giuspen.cherrytree,cherrytree cherrytree-git,,cherrytree,appstream://com.giuspen.cherrytree,https://raw.githubusercontent.com/giuspen/cherrytree/master/data/_com.giuspen.cherrytree.metainfo.xml
